[
  {
    "qid": "YWo5CVvkTyh9pcyoxAacVf9y1hDEnU",
    "uid": "nz1tmeCIFVjlWhLqd7efRjiBp4h2Au",
    "answerset": [
      {
        "id": 2,
        "lastChange": 1534770868514,
        "value": "2-3"
      },
      {
        "id": 0,
        "lastChange": 1534770868604,
        "value": "ich hab ihn direkt vom server gezogen"
      },
      {
        "id": 5,
        "lastChange": 1534770887058,
        "value": "5-0"
      },
      {
        "id": 6,
        "lastChange": 1535244143084,
        "value": "Fakultät für Mathematik und Informatik"
      },
      {
        "id": 7,
        "lastChange": 1535244148807,
        "value": "Angewandte Informatik"
      },
      {
        "id": 8,
        "lastChange": 1535244151836,
        "value": "8-1"
      },
      {
        "id": 9,
        "lastChange": 1535244157153,
        "value": "8"
      },
      {
        "id": 10,
        "lastChange": 1535244195347,
        "value": [
          "10-0-0",
          "10-1-1",
          "10-2-1",
          "10-3-2",
          "10-4-2",
          "10-5-1",
          "10-6-3"
        ]
      },
      {
        "id": 11,
        "lastChange": 1535244199670,
        "value": "11-2"
      },
      {
        "id": 12,
        "lastChange": 1535244213384,
        "value": [
          "12-0",
          "12-1",
          "12-2",
          "12-3",
          "12-4",
          "12-5",
          "12-6",
          "12-7",
          "12-8"
        ]
      },
      {
        "id": 13,
        "lastChange": 1535244220278,
        "value": "13-2"
      },
      {
        "id": 16,
        "lastChange": 1535244229183,
        "value": [
          "16-0",
          "16-1",
          "16-2",
          "16-3"
        ]
      },
      {
        "id": 17,
        "lastChange": 1535244246673,
        "value": [
          "17-0",
          "17-1",
          "17-2",
          "17-3",
          "17-4",
          "17-5",
          "17-6",
          "17-10"
        ]
      },
      {
        "id": 20,
        "lastChange": 1535244257587,
        "value": [
          "20-0",
          "20-1",
          "20-3"
        ]
      },
      {
        "id": 21,
        "lastChange": 1535244266280,
        "value": "21-2"
      },
      {
        "id": 22,
        "lastChange": 1535244399217,
        "value": [
          "22-0-2",
          "22-0-3",
          "22-0-4",
          "22-0-6",
          "22-2-2",
          "22-2-3",
          "22-2-5",
          "22-3-0",
          "22-3-1",
          "22-4-4",
          "22-5-7",
          "22-5-5",
          "22-5-4",
          "22-7-2",
          "22-7-3",
          "22-7-4",
          "22-8-2",
          "22-8-3",
          "22-8-4",
          "22-8-5",
          "22-8-6"
        ]
      },
      {
        "id": 25,
        "lastChange": 1535244423065,
        "value": [
          "25-0",
          "25-1",
          "25-2",
          "25-3",
          "25-5",
          "25-7",
          "25-8"
        ]
      },
      {
        "id": 26,
        "lastChange": 1535244427214,
        "value": "26-0"
      },
      {
        "id": 27,
        "lastChange": 1535244434758,
        "value": "27-1"
      },
      {
        "id": 28,
        "lastChange": 1535244436425,
        "value": "28-1"
      },
      {
        "id": 29,
        "lastChange": 1535244442535,
        "value": "29-4"
      },
      {
        "id": 30,
        "lastChange": 1535244450113,
        "value": "40%"
      },
      {
        "id": 31,
        "lastChange": 1535244456508,
        "value": "31-0"
      },
      {
        "id": 32,
        "lastChange": 1535244460855,
        "value": "2 malig"
      },
      {
        "id": 33,
        "lastChange": 1535244467137,
        "value": "33-1"
      },
      {
        "id": 34,
        "lastChange": 1535244475710,
        "value": "34-2"
      },
      {
        "id": 35,
        "lastChange": 1535244478785,
        "value": "35-0"
      },
      {
        "id": 36,
        "lastChange": 1535244485042,
        "value": "36-2"
      },
      {
        "id": 37,
        "lastChange": 1535244490652,
        "value": "75-99%"
      },
      {
        "id": 38,
        "lastChange": 1535244495943,
        "value": "gar nicht"
      },
      {
        "id": 39,
        "lastChange": 1535244509340,
        "value": "39-2"
      },
      {
        "id": 40,
        "lastChange": 1535244510783,
        "value": "40-1"
      },
      {
        "id": 41,
        "lastChange": 1535244525146,
        "value": [
          "41-0-2",
          "41-1-2",
          "41-2-1",
          "41-3-1"
        ]
      },
      {
        "id": 42,
        "lastChange": 1535244550413,
        "value": [
          "42-0-3",
          "42-1-1",
          "42-2-2",
          "42-3-1"
        ]
      },
      {
        "id": 43,
        "lastChange": 1535244557569,
        "value": [
          "43-0-1",
          "43-1-0",
          "43-2-0",
          "43-3-0",
          "43-4-0",
          "43-5-0"
        ]
      },
      {
        "id": 44,
        "lastChange": 1535244562391,
        "value": [
          "44-0-0",
          "44-1-0",
          "44-2-0",
          "44-3-0",
          "44-4-0"
        ]
      },
      {
        "id": 45,
        "lastChange": 1535244564624,
        "value": [
          "45-0-0",
          "45-1-0",
          "45-2-0",
          "45-3-0",
          "45-4-0"
        ]
      },
      {
        "id": 46,
        "lastChange": 1535244566808,
        "value": "46-0"
      },
      {
        "id": 47,
        "lastChange": 1535244576641,
        "value": "47-2"
      },
      {
        "id": 48,
        "lastChange": 1535244582908,
        "value": "48-1"
      },
      {
        "id": 51,
        "lastChange": 1535244592046,
        "value": [
          "51-3"
        ]
      },
      {
        "id": 49,
        "lastChange": 1535244604630,
        "value": "ich krieg es nicht organisiert und kann mich nicht lösen"
      },
      {
        "id": 52,
        "lastChange": 1535244614088,
        "value": "52-1"
      },
      {
        "id": 53,
        "lastChange": 1535244615949,
        "value": "53-2"
      },
      {
        "id": 54,
        "lastChange": 1535244625861,
        "value": "54-1"
      },
      {
        "id": 55,
        "lastChange": 1535244651687,
        "value": [
          "55-0-1",
          "55-1-0",
          "55-2-2",
          "55-3-0",
          "55-4-0"
        ]
      },
      {
        "id": 58,
        "lastChange": 1535244666544,
        "value": [
          "58-0",
          "58-2",
          "58-4",
          "58-5"
        ]
      },
      {
        "id": 59,
        "lastChange": 1535244681925,
        "value": [
          "59-0",
          "59-1",
          "59-2",
          "59-4",
          "59-6"
        ]
      },
      {
        "id": 60,
        "lastChange": 1535244701453,
        "value": [
          "60-0-0",
          "60-1-1",
          "60-2-1",
          "60-3-1",
          "60-4-0",
          "60-5-1",
          "60-6-0"
        ]
      },
      {
        "id": 61,
        "lastChange": 1535244725998,
        "value": "wenn ich diesen fragebogen nicht zum 10. mal ausfüllen müsste"
      }
    ],
    "progressbarType": "linear",
    "meta": {
      "revision": 32,
      "created": 1534496899398,
      "version": 0,
      "updated": 1535244729065
    },
    "$loki": 1
  }
]
